0000.001 (0) Opened log file at time: Tue, 25 Feb 2020 04:07:08 +0000 on http://192.168.1.82:8000
0000.008 (0) UpdraftPlus WordPress backup plugin (https://updraftplus.com): 1.16.22 WP: 5.3.2 PHP: 7.3.15 (apache2handler, Linux 93f989d420c8 4.19.76-linuxkit #1 SMP Thu Oct 17 19:31:58 UTC 2019 x86_64) MySQL: 5.7.29 WPLANG: pt_BR Server: Apache/2.4.38 (Debian) safe_mode: 0 max_execution_time: 900 memory_limit: 256M (used: 11.4M | 4M) multisite: N openssl: OpenSSL 1.1.1d  10 Sep 2019 mcrypt: N LANG: C ZipArchive::addFile: Y
0000.013 (0) Free space on disk containing Updraft's temporary directory: 53960.3 MB
0000.024 (0) Tasks: Backup files: 0 (schedule: unset) Backup DB: 1 (schedule: unset)
0000.032 (0) Semaphore (d, wp_options) being initialised
0000.048 (0) Requesting semaphore lock (d) (apparently not via scheduler)
0000.079 (0) Set semaphore last lock (d) time to 2020-02-25 04:07:08
0000.087 (0) Semaphore lock (d) complete
0000.105 (0) Backup run: resumption=0, nonce=fe50b3ae6d07, file_nonce=fe50b3ae6d07 begun at=1582603628 (0s ago), job type=backup
0000.121 (0) Scheduling a resumption (1) after 300 seconds (1582603928) in case this run gets aborted
0000.167 (0) This backup run is not intended for files - skipping
0000.178 (0) Beginning creation of database dump (WordPress DB)
0000.206 (0) Table wp_options: Total expected rows (approximate): 182
0000.266 (0) Table wp_options: Total rows added: 181 in 0.05 seconds
0000.273 (0) Table wp_options: finishing file (backup_2020-02-25-0107_Petshop_fe50b3ae6d07-db-table-wp_options.table.gz - 170.6 KB)
0000.297 (0) Table wp_users: Total expected rows (approximate): 0
0000.304 (0) Table wp_users: Total rows added: 1 in 0.00 seconds
0000.315 (0) Table wp_users: finishing file (backup_2020-02-25-0107_Petshop_fe50b3ae6d07-db-table-wp_users.table.gz - 0.6 KB)
0000.332 (0) Table wp_usermeta: Total expected rows (approximate): 21
0000.339 (0) Table wp_usermeta: Total rows added: 22 in 0.00 seconds
0000.351 (0) Table wp_usermeta: finishing file (backup_2020-02-25-0107_Petshop_fe50b3ae6d07-db-table-wp_usermeta.table.gz - 1.3 KB)
0000.369 (0) Table wp_commentmeta: Total expected rows (approximate): 0
0000.376 (0) Table wp_commentmeta: Total rows added: 0 in 0.00 seconds
0000.382 (0) Table wp_commentmeta: finishing file (backup_2020-02-25-0107_Petshop_fe50b3ae6d07-db-table-wp_commentmeta.table.gz - 0.4 KB)
0000.406 (0) Table wp_comments: Total expected rows (approximate): 0
0000.416 (0) Table wp_comments: Total rows added: 1 in 0.00 seconds
0000.425 (0) Table wp_comments: finishing file (backup_2020-02-25-0107_Petshop_fe50b3ae6d07-db-table-wp_comments.table.gz - 0.7 KB)
0000.446 (0) Table wp_links: Total expected rows (approximate): 0
0000.455 (0) Table wp_links: Total rows added: 0 in 0.00 seconds
0000.464 (0) Table wp_links: finishing file (backup_2020-02-25-0107_Petshop_fe50b3ae6d07-db-table-wp_links.table.gz - 0.4 KB)
0000.483 (0) Table wp_postmeta: Total expected rows (approximate): 217
0000.492 (0) Table wp_postmeta: Total rows added: 230 in 0.00 seconds
0000.502 (0) Table wp_postmeta: finishing file (backup_2020-02-25-0107_Petshop_fe50b3ae6d07-db-table-wp_postmeta.table.gz - 4.2 KB)
0000.522 (0) Table wp_posts: Total expected rows (approximate): 66
0000.532 (0) Table wp_posts: Total rows added: 67 in 0.00 seconds
0000.561 (0) Table wp_posts: finishing file (backup_2020-02-25-0107_Petshop_fe50b3ae6d07-db-table-wp_posts.table.gz - 11.1 KB)
0000.583 (0) Table wp_term_relationships: Total expected rows (approximate): 5
0000.591 (0) Table wp_term_relationships: Total rows added: 7 in 0.00 seconds
0000.597 (0) Table wp_term_relationships: finishing file (backup_2020-02-25-0107_Petshop_fe50b3ae6d07-db-table-wp_term_relationships.table.gz - 0.4 KB)
0000.617 (0) Table wp_term_taxonomy: Total expected rows (approximate): 3
0000.625 (0) Table wp_term_taxonomy: Total rows added: 5 in 0.00 seconds
0000.633 (0) Table wp_term_taxonomy: finishing file (backup_2020-02-25-0107_Petshop_fe50b3ae6d07-db-table-wp_term_taxonomy.table.gz - 0.5 KB)
0000.660 (0) Table wp_termmeta: Total expected rows (approximate): 0
0000.668 (0) Table wp_termmeta: Total rows added: 0 in 0.00 seconds
0000.674 (0) Table wp_termmeta: finishing file (backup_2020-02-25-0107_Petshop_fe50b3ae6d07-db-table-wp_termmeta.table.gz - 0.4 KB)
0000.698 (0) Table wp_terms: Total expected rows (approximate): 3
0000.713 (0) Table wp_terms: Total rows added: 5 in 0.00 seconds
0000.719 (0) Table wp_terms: finishing file (backup_2020-02-25-0107_Petshop_fe50b3ae6d07-db-table-wp_terms.table.gz - 0.4 KB)
0000.738 (0) Table wp_ap_pro_forms: Total expected rows (approximate): 0
0000.746 (0) Table wp_ap_pro_forms: Total rows added: 1 in 0.00 seconds
0000.754 (0) Table wp_ap_pro_forms: finishing file (backup_2020-02-25-0107_Petshop_fe50b3ae6d07-db-table-wp_ap_pro_forms.table.gz - 3.1 KB)
0000.790 (0) Table wp_wpfm_backup: Total expected rows (approximate): 0
0000.799 (0) Table wp_wpfm_backup: Total rows added: 0 in 0.00 seconds
0000.805 (0) Table wp_wpfm_backup: finishing file (backup_2020-02-25-0107_Petshop_fe50b3ae6d07-db-table-wp_wpfm_backup.table.gz - 0.3 KB)
0000.822 (0) backup_2020-02-25-0107_Petshop_fe50b3ae6d07-db-table-wp_options.table.gz (1/14): adding to final database dump
0000.881 (0) backup_2020-02-25-0107_Petshop_fe50b3ae6d07-db-table-wp_users.table.gz (2/14): adding to final database dump
0000.886 (0) backup_2020-02-25-0107_Petshop_fe50b3ae6d07-db-table-wp_usermeta.table.gz (3/14): adding to final database dump
0000.892 (0) backup_2020-02-25-0107_Petshop_fe50b3ae6d07-db-table-wp_commentmeta.table.gz (4/14): adding to final database dump
0000.898 (0) backup_2020-02-25-0107_Petshop_fe50b3ae6d07-db-table-wp_comments.table.gz (5/14): adding to final database dump
0000.904 (0) backup_2020-02-25-0107_Petshop_fe50b3ae6d07-db-table-wp_links.table.gz (6/14): adding to final database dump
0000.909 (0) backup_2020-02-25-0107_Petshop_fe50b3ae6d07-db-table-wp_postmeta.table.gz (7/14): adding to final database dump
0000.916 (0) backup_2020-02-25-0107_Petshop_fe50b3ae6d07-db-table-wp_posts.table.gz (8/14): adding to final database dump
0000.923 (0) backup_2020-02-25-0107_Petshop_fe50b3ae6d07-db-table-wp_term_relationships.table.gz (9/14): adding to final database dump
0000.928 (0) backup_2020-02-25-0107_Petshop_fe50b3ae6d07-db-table-wp_term_taxonomy.table.gz (10/14): adding to final database dump
0000.935 (0) backup_2020-02-25-0107_Petshop_fe50b3ae6d07-db-table-wp_termmeta.table.gz (11/14): adding to final database dump
0000.942 (0) backup_2020-02-25-0107_Petshop_fe50b3ae6d07-db-table-wp_terms.table.gz (12/14): adding to final database dump
0000.948 (0) backup_2020-02-25-0107_Petshop_fe50b3ae6d07-db-table-wp_ap_pro_forms.table.gz (13/14): adding to final database dump
0000.958 (0) backup_2020-02-25-0107_Petshop_fe50b3ae6d07-db-table-wp_wpfm_backup.table.gz (14/14): adding to final database dump
0000.980 (0) backup_2020-02-25-0107_Petshop_fe50b3ae6d07-db.gz: finished writing out complete database file (160 KB)
0001.018 (0) Total database tables backed up: 14 (backup_2020-02-25-0107_Petshop_fe50b3ae6d07-db.gz, size: 196293, sha1: d74613d39a76e7e23324d667867455ad3ff9cd70, sha256: ee12576bf1a2615dca2c5496134b801c7b522efb28175213cd9ca51e4f4d270a)
0001.049 (0) backup_2020-02-25-0107_Petshop_fe50b3ae6d07-db.gz: db: This file has not yet been successfully uploaded: will queue
0001.054 (0) Saving backup history. Total backup size: 191.7 KB
0001.077 (0) Requesting upload of the files that have not yet been successfully uploaded (1)
0001.131 (0) Cloud backup selection (1/1): none with instance (1/1) (last)
0001.136 (0) No remote despatch: user chose no remote backup service
0001.142 (0) Recording as successfully uploaded: backup_2020-02-25-0107_Petshop_fe50b3ae6d07-db.gz
0001.162 (0) Retain: beginning examination of existing backup sets; user setting: retain_files=2, retain_db=2
0001.175 (0) Number of backup sets in history: 1; groups (db): 1
0001.180 (0) Examining (for databases) backup set with group_id=0, nonce=fe50b3ae6d07, datestamp=1582603628 (Feb 25 2020 04:07:08)
0001.187 (0) This backup set is the backup set just made, so will not be deleted.
0001.187 (0) Number of backup sets in history: 1; groups (files): 1
0001.202 (0) Examining (for files) backup set with nonce=fe50b3ae6d07, datestamp=1582603628 (Feb 25 2020 04:07:08)
0001.202 (0) This backup set remains non-empty (f=0/d=1); will retain in history
0001.209 (0) Retain: saving new backup history (sets now: 1) and finishing retain operation
0001.227 (0) Resume backup (fe50b3ae6d07, 0): finish run
0001.241 (0) Decremented the semaphore (d) by 1
0001.252 (0) Semaphore (d) unlocked
0001.257 (0) There were no errors in the uploads, so the 'resume' event (1) is being unscheduled
0001.273 (0) The backup apparently succeeded and is now complete
0001.279 (0) No email will/can be sent - the user has not configured an email address.
0001.283 (0) O backup aparentemente foi bem sucedido e está completo agora.
